module fita

go 1.18

require (
	github.com/kelseyhightower/envconfig v1.4.0
	gorm.io/driver/mysql v1.3.6
	gorm.io/gorm v1.23.8
)

require (
	github.com/Azure/go-ansiterm v0.0.0-20210617225240-d185dfc1b5a1 // indirect
	github.com/Microsoft/go-winio v0.5.2 // indirect
	github.com/Nvveen/Gotty v0.0.0-20120604004816-cd527374f1e5 // indirect
	github.com/cenkalti/backoff/v4 v4.1.3 // indirect
	github.com/containerd/continuity v0.3.0 // indirect
	github.com/davecgh/go-spew v1.1.1 // indirect
	github.com/docker/cli v20.10.18+incompatible // indirect
	github.com/docker/docker v20.10.18+incompatible // indirect
	github.com/docker/go-connections v0.4.0 // indirect
	github.com/docker/go-units v0.5.0 // indirect
	github.com/gin-contrib/sse v0.1.0 // indirect
	github.com/gin-gonic/gin v1.8.1 // indirect
	github.com/go-playground/locales v0.14.0 // indirect
	github.com/go-playground/universal-translator v0.18.0 // indirect
	github.com/go-playground/validator/v10 v10.11.0 // indirect
	github.com/go-sql-driver/mysql v1.6.0 // indirect
	github.com/goccy/go-json v0.9.11 // indirect
	github.com/gogo/protobuf v1.3.2 // indirect
	github.com/google/shlex v0.0.0-20191202100458-e7afc7fbc510 // indirect
	github.com/imdario/mergo v0.3.13 // indirect
	github.com/jinzhu/inflection v1.0.0 // indirect
	github.com/jinzhu/now v1.1.5 // indirect
	github.com/json-iterator/go v1.1.12 // indirect
	github.com/leodido/go-urn v1.2.1 // indirect
	github.com/mattn/go-isatty v0.0.16 // indirect
	github.com/mitchellh/mapstructure v1.5.0 // indirect
	github.com/moby/term v0.0.0-20220808134915-39b0c02b01ae // indirect
	github.com/modern-go/concurrent v0.0.0-20180306012644-bacd9c7ef1dd // indirect
	github.com/modern-go/reflect2 v1.0.2 // indirect
	github.com/opencontainers/go-digest v1.0.0 // indirect
	github.com/opencontainers/image-spec v1.0.2 // indirect
	github.com/opencontainers/runc v1.1.4 // indirect
	github.com/ory/dockertest v3.3.5+incompatible // indirect
	github.com/ory/dockertest/v3 v3.9.1 // indirect
	github.com/pelletier/go-toml/v2 v2.0.5 // indirect
	github.com/pkg/errors v0.9.1 // indirect
	github.com/pmezard/go-difflib v1.0.0 // indirect
	github.com/sirupsen/logrus v1.9.0 // indirect
	github.com/stretchr/objx v0.4.0 // indirect
	github.com/stretchr/testify v1.8.0 // indirect
	github.com/ugorji/go/codec v1.2.7 // indirect
	github.com/xeipuuv/gojsonpointer v0.0.0-20190905194746-02993c407bfb // indirect
	github.com/xeipuuv/gojsonreference v0.0.0-20180127040603-bd5ef7bd5415 // indirect
	github.com/xeipuuv/gojsonschema v1.2.0 // indirect
	golang.org/x/crypto v0.0.0-20220829220503-c86fa9a7ed90 // indirect
	golang.org/x/net v0.0.0-20220909164309-bea034e7d591 // indirect
	golang.org/x/sys v0.0.0-20220909162455-aba9fc2a8ff2 // indirect
	golang.org/x/text v0.3.7 // indirect
	google.golang.org/protobuf v1.28.1 // indirect
	gopkg.in/yaml.v2 v2.4.0 // indirect
	gopkg.in/yaml.v3 v3.0.1 // indirect
)
